==================================
Sending to WebSocket: 2018-07-17 16:24:55.886
{
  "mType": "iqrfEmbedEeprom_Read",
  "data": {
    "msgId": "testEmbedEeprom",
    "req": {
      "nAdr": 1,
      "param": {
        "address": 0,
        "len": 10
      }
    },
    "returnVerbose": true
  }
}
Received from WebSocket: 2018-07-17 16:24:56.81
{
    "mType": "iqrfEmbedEeprom_Read",
    "data": {
        "msgId": "testEmbedEeprom",
        "rsp": {
            "nAdr": 1,
            "hwpId": 2,
            "rCode": 0,
            "dpaVal": 76,
            "result": {
                "pData": [
                    0,
                    0,
                    0,
                    0,
                    0,
                    0,
                    0,
                    0,
                    0,
                    0
                ]
            }
        },
        "raw": {
            "request": "01.00.03.00.ff.ff.00.0a",
            "requestTs": "2018-07-17T16:24:56.762957",
            "confirmation": "01.00.03.00.ff.ff.ff.3d.01.04.01",
            "confirmationTs": "2018-07-17T16:24:56.797150",
            "response": "01.00.03.80.02.00.00.4c.00.00.00.00.00.00.00.00.00.00",
            "responseTs": "2018-07-17T16:24:56.937197"
        },
        "insId": "iqrfgd2-1",
        "statusStr": "ok",
        "status": 0
    }
}
2018-07-17 16:24:57.375
==================================

==================================
Sending to WebSocket: 2018-07-17 16:28:13.666
{
  "mType": "iqrfEmbedEeprom_Read",
  "data": {
    "msgId": "testEmbedEeprom",
    "req": {
      "nAdr": 1,
      "param": {
        "address": 0,
        "len": 10
      }
    },
    "returnVerbose": true
  }
}
Received from WebSocket: 2018-07-17 16:28:14.15
{
    "mType": "iqrfEmbedEeprom_Read",
    "data": {
        "msgId": "testEmbedEeprom",
        "rsp": {
            "nAdr": 1,
            "hwpId": 2,
            "rCode": 0,
            "dpaVal": 77,
            "result": {
                "pData": [
                    0,
                    1,
                    2,
                    3,
                    4,
                    0,
                    0,
                    0,
                    0,
                    0
                ]
            }
        },
        "raw": {
            "request": "01.00.03.00.ff.ff.00.0a",
            "requestTs": "2018-07-17T16:28:14.112711",
            "confirmation": "01.00.03.00.ff.ff.ff.3b.01.04.01",
            "confirmationTs": "2018-07-17T16:28:14.143809",
            "response": "01.00.03.80.02.00.00.4d.00.01.02.03.04.00.00.00.00.00",
            "responseTs": "2018-07-17T16:28:14.278814"
        },
        "insId": "iqrfgd2-1",
        "statusStr": "ok",
        "status": 0
    }
}
2018-07-17 16:28:14.611
==================================

