{
    "$schema": "http://apidocs.iqrf.org/iqrf-gateway-daemon/com.iqrftech.self-desc/schema/jsonschema/1-0-0#",
    "self": {
        "vendor": "com.iqrftech.self-desc",
        "name": "iqrfEmbedSpi_WriteRead-request",
        "format": "jsonschema",
        "version": "1-0-0"
    },
    "type": "object",
    "properties": {
        "mType": {
            "type": "string",
            "description": "Embedded peripheral SPI - Write Read request.",
            "enum": [
                "iqrfEmbedSpi_WriteRead"
            ]
        },
        "data": {
            "type": "object",
            "properties": {
                "msgId": {
                    "type": "string",
                    "description": "Message identification for binding request with response."
                },
                "timeout": {
                    "type": "integer",
                    "description": "Timeout to wait for IQRF DPA response."
                },
                "req": {
                    "type": "object",
                    "properties": {
                        "nAdr": {
                            "type": "integer",
                            "description": "Network device address."
                        },
                        "hwpId": {
                            "type": "integer",
                            "description": "Hardware profile identification."
                        },
                        "param": {
                            "type": "object",
                            "properties": {
                                "readTimeout": {
                                    "type": "integer",
                                    "description": "Specifies timeout in 10 ms unit to wait for data to be read after data is (optionally) written."
                                },
                                "writtenData": {
                                    "type": "array",
                                    "description": "Optional data to be written.",    
                                    "items": {
                                        "type": "integer"
                                    }
                                }
                            }
                        }
                    },
                    "required": [
                        "nAdr",
                        "param"
                    ]
                },
                "returnVerbose": {
                    "type": "boolean",
                    "description": "Flag that includes additional parameters in the response."
                }
            },
            "required": [
                "msgId",
                "req"
            ]
        }
    },
    "required": [
        "mType",
        "data"
    ]
}
